EESchema Schematic File Version 4
EELAYER 30 0
EELAYER END
$Descr A4 11693 8268
encoding utf-8
Sheet 4 4
Title "LED"
Date "6/ 3/2021"
Rev ""
Comp "University of Cape Town"
Comment1 "Martin Motileng"
Comment2 ""
Comment3 ""
Comment4 ""
$EndDescr
$Comp
L Device:R_Small_US R10
U 1 1 60B7BBB6
P 3600 4500
F 0 "R10" V 3395 4500 50  0000 C CNN
F 1 "R_Small_US" V 3486 4500 50  0000 C CNN
F 2 "Resistor_THT:R_Axial_DIN0204_L3.6mm_D1.6mm_P5.08mm_Horizontal" H 3600 4500 50  0001 C CNN
F 3 "~" H 3600 4500 50  0001 C CNN
	1    3600 4500
	0    1    1    0   
$EndComp
$Comp
L Device:LED D8
U 1 1 60B82896
P 4000 4500
F 0 "D8" H 3993 4245 50  0000 C CNN
F 1 "LED" H 3993 4336 50  0000 C CNN
F 2 "LED_THT:LED_D1.8mm_W3.3mm_H2.4mm" H 4000 4500 50  0001 C CNN
F 3 "~" H 4000 4500 50  0001 C CNN
	1    4000 4500
	-1   0    0    1   
$EndComp
$Comp
L Device:LED D7
U 1 1 60B82FE5
P 4000 4000
F 0 "D7" H 3993 3745 50  0000 C CNN
F 1 "LED" H 3993 3836 50  0000 C CNN
F 2 "LED_THT:LED_D1.8mm_W3.3mm_H2.4mm" H 4000 4000 50  0001 C CNN
F 3 "~" H 4000 4000 50  0001 C CNN
	1    4000 4000
	-1   0    0    1   
$EndComp
$Comp
L Device:LED D6
U 1 1 60B83A8F
P 4000 3500
F 0 "D6" H 3993 3245 50  0000 C CNN
F 1 "LED" H 3993 3336 50  0000 C CNN
F 2 "LED_THT:LED_D1.8mm_W3.3mm_H2.4mm" H 4000 3500 50  0001 C CNN
F 3 "~" H 4000 3500 50  0001 C CNN
	1    4000 3500
	-1   0    0    1   
$EndComp
$Comp
L Device:R_Small_US R9
U 1 1 60B83FA7
P 3600 4000
F 0 "R9" V 3395 4000 50  0000 C CNN
F 1 "R_Small_US" V 3486 4000 50  0000 C CNN
F 2 "Resistor_THT:R_Axial_DIN0204_L3.6mm_D1.6mm_P5.08mm_Horizontal" H 3600 4000 50  0001 C CNN
F 3 "~" H 3600 4000 50  0001 C CNN
	1    3600 4000
	0    1    1    0   
$EndComp
$Comp
L Device:R_Small_US R8
U 1 1 60B843DD
P 3600 3500
F 0 "R8" V 3395 3500 50  0000 C CNN
F 1 "R_Small_US" V 3486 3500 50  0000 C CNN
F 2 "Resistor_THT:R_Axial_DIN0204_L3.6mm_D1.6mm_P5.08mm_Horizontal" H 3600 3500 50  0001 C CNN
F 3 "~" H 3600 3500 50  0001 C CNN
	1    3600 3500
	0    1    1    0   
$EndComp
Wire Wire Line
	4150 4500 4500 4500
Wire Wire Line
	4150 3500 4500 3500
Wire Wire Line
	4500 3500 4500 4000
Wire Wire Line
	4500 4000 4150 4000
Connection ~ 4500 4000
Wire Wire Line
	4500 4000 4500 4500
Wire Wire Line
	3850 4000 3700 4000
Wire Wire Line
	3850 3500 3700 3500
Wire Wire Line
	3500 3500 3300 3500
Wire Wire Line
	3300 3500 3300 4000
Wire Wire Line
	3300 4000 3500 4000
Wire Wire Line
	3300 4000 3300 4500
Wire Wire Line
	3300 4500 3500 4500
Connection ~ 3300 4000
Wire Wire Line
	3300 4000 3000 4000
Text HLabel 3000 4000 0    50   Input ~ 0
A_Vin
Wire Wire Line
	3850 4500 3700 4500
Text HLabel 4500 4000 2    50   Input ~ 0
GND
$EndSCHEMATC
